[
  {
    "inventory_manufacturer_id":"1",
    "inventory_manufacturer_name":"",
    "inventory_manufacturer_ref":"",
    "inventory_manufacturer_description":"The picklist first option is blank."
  },
  {
    "inventory_manufacturer_id":2,
    "inventory_manufacturer_name":"Caterpillar",
    "inventory_manufacturer_ref":"0123456AB",
    "inventory_manufacturer_description":"Test 1 manufacturer."
  },
  {
    "inventory_manufacturer_id":3,
    "inventory_manufacturer_name":"CAT",
    "inventory_manufacturer_ref":"123344AABB",
    "inventory_manufacturer_description":"Test 2 for manufacturer."
  },
  {
    "inventory_manufacturer_id":4,
    "inventory_manufacturer_name":"Super Company",
    "inventory_manufacturer_ref":"XXX098123",
    "inventory_manufacturer_description":"Test 3 for manufacturer."
  }
]
