[
  {
    "field_id":1,
    "field":"logbook_id",
    "field_title":"Log ID",
    "field_type":"text",
    "field_group":"_lb",
    "field_view":"main",
    "field_input":"auto",
    "field_disabled":true,
    "field_picklist":"",
    "field_url":"",
    "field_static":true,
    "field_required":true,
    "field_description":"Field identification"
  },
  {
    "field_id":2,
    "field":"log_record_date",
    "field_title":"Record Date",
    "field_type":"number",
    "field_group":"_lb",
    "field_view":"details",
    "field_input":"auto",
    "field_disabled":true,
    "field_picklist":"",
    "field_url":"",
    "field_static":true,
    "field_required":true,
    "field_description":"Log record date."
  },
  {
    "field_id":3,
    "field":"log_record_time",
    "field_title":"Record Time",
    "field_type":"number",
    "field_group":"_lb",
    "field_view":"details",
    "field_input":"auto",
    "field_disabled":true,
    "field_picklist":"",
    "field_url":"",
    "field_static":true,
    "field_required":true,
    "field_description":"Log record time."
  },
  {
    "field_id":4,
    "field":"log_port_sea",
    "field_title":"Port / Sea",
    "field_type":"boolean",
    "field_group":"_lb",
    "field_view":"main",
    "field_input":"picklist",
    "field_disabled":false,
    "field_picklist":"port_sea",
    "field_url":"tys_production/ympdb/picklist/boolean/port_sea.json",
    "field_static":true,
    "field_required":true,
    "field_description":"Log record at port or ar sea."
  },
  {
    "field_id":5,
    "field":"log_description",
    "field_title":"Log Description",
    "field_type":"text",
    "field_group":"_lb",
    "field_view":"main",
    "field_input":"write",
    "field_disabled":false,
    "field_picklist":"",
    "field_url":"",
    "field_static":true,
    "field_required":true,
    "field_description":"Log record description"
  },
  {
    "field_id":6,
    "field":"user_edit_id",
    "field_title":"User Logged",
    "field_type":"text",
    "field_group":"_lb",
    "field_view":"details",
    "field_input":"auto",
    "field_disabled":true,
    "field_picklist":"",
    "field_url":"",
    "field_static":true,
    "field_required":true,
    "field_description":"User record ID of the user editing the record."
  },
  {
    "field_id":7,
    "field":"job_id",
    "field_title":"Job",
    "field_type":"text",
    "field_group":"_lb",
    "field_view":"main",
    "field_input":"picklist",
    "field_disabled":false,
    "field_picklist":"job",
    "field_url":"tys_production/ympdb/job.json",
    "field_static":true,
    "field_required":true,
    "field_description":"Job Management record ID."
  },
  {
    "field_id":8,
    "field":"log_main_engine_id_port",
    "field_title":"Log Main Engine Port ID",
    "field_type":"text",
    "field_group":"_lb",
    "field_view":"details_xtra",
    "field_input":"sub",
    "field_disabled":false,
    "field_picklist":"",
    "field_url":"tys_production/ympdb/sub/logbook/",
    "field_static":false,
    "field_required":true,
    "field_description":"Log record identification. A 'P' or an 'S' prefix will identify if data belongs to Port (left) or Starboard (right)."
  },
  {
    "field_id":9,
    "field":"log_main_engine_id_starboard",
    "field_title":"Log Main Engine Starboard ID",
    "field_type":"text",
    "field_group":"_lb",
    "field_view":"details_xtra",
    "field_input":"sub",
    "field_disabled":false,
    "field_picklist":"",
    "field_url":"tys_production/ympdb/sub/logbook/",
    "field_static":false,
    "field_required":true,
    "field_description":"Log record identification. A 'P' or an 'S' prefix will identify if data belongs to Port (left) or Starboard (right)."
  },
  {
    "field_id":10,
    "field":"log_engine_room_id",
    "field_title":"Log Engine Room ID",
    "field_type":"text",
    "field_group":"_lb",
    "field_view":"details_xtra",
    "field_input":"sub",
    "field_disabled":true,
    "field_picklist":"",
    "field_url":"tys_production/ympdb/sub/logbook/",
    "field_static":false,
    "field_required":true,
    "field_description":"Log record identification."
  },
  {
    "field_id":11,
    "field":"log_exh_temp_id",
    "field_title":"Log Exh. Temp. ID",
    "field_type":"text",
    "field_group":"_lb",
    "field_view":"details_xtra",
    "field_input":"sub",
    "field_disabled":true,
    "field_picklist":"",
    "field_url":"tys_production/ympdb/sub/logbook/",
    "field_static":false,
    "field_required":true,
    "field_description":"Log record identification."
  },
  {
    "field_id":12,
    "field":"log_nfvfo_treatment_id",
    "field_title":"Log NFV F.O. Treatment ID",
    "field_type":"text",
    "field_group":"_lb",
    "field_view":"details_xtra",
    "field_input":"sub",
    "field_disabled":true,
    "field_picklist":"",
    "field_url":"tys_production/ympdb/sub/logbook/",
    "field_static":false,
    "field_required":true,
    "field_description":"Log record identification."
  },
  {
    "field_id":13,
    "field":"log_steering_gear_id",
    "field_title":"Log Steering Gear ID",
    "field_type":"text",
    "field_group":"_lb",
    "field_view":"details_xtra",
    "field_input":"sub",
    "field_disabled":true,
    "field_picklist":"",
    "field_url":"tys_production/ympdb/sub/logbook/",
    "field_static":false,
    "field_required":true,
    "field_description":"Log record identification."
  },
  {
    "field_id":14,
    "field":"log_genset_id_1",
    "field_title":"Log Genset ID 1",
    "field_type":"text",
    "field_group":"_lb",
    "field_view":"details_xtra",
    "field_input":"sub",
    "field_disabled":true,
    "field_picklist":"",
    "field_url":"tys_production/ympdb/sub/logbook/",
    "field_static":false,
    "field_required":true,
    "field_description":"Log record identification. A '1','2' or a '3' prefix will identify if data belongs to No.1, No.2 or No.3."
  },
  {
    "field_id":15,
    "field":"log_genset_id_2",
    "field_title":"Log Genset ID 2",
    "field_type":"text",
    "field_group":"_lb",
    "field_view":"details_xtra",
    "field_input":"sub",
    "field_disabled":true,
    "field_picklist":"",
    "field_url":"tys_production/ympdb/sub/logbook/",
    "field_static":false,
    "field_required":true,
    "field_description":"Log record identification. A '1','2' or a '3' prefix will identify if data belongs to No.1, No.2 or No.3."
  },
  {
    "field_id":16,
    "field":"log_genset_id_3",
    "field_title":"Log Genset ID 3",
    "field_type":"text",
    "field_group":"_lb",
    "field_view":"details_xtra",
    "field_input":"sub",
    "field_disabled":true,
    "field_picklist":"",
    "field_url":"tys_production/ympdb/sub/logbook/",
    "field_static":false,
    "field_required":true,
    "field_description":"Log record identification. A '1','2' or a '3' prefix will identify if data belongs to No.1, No.2 or No.3."
  },
  {
    "field_id":17,
    "field":"log_shore_power_id",
    "field_title":"Log Shore Power ID",
    "field_type":"text",
    "field_group":"_lb",
    "field_view":"details_xtra",
    "field_input":"sub",
    "field_disabled":true,
    "field_picklist":"",
    "field_url":"tys_production/ympdb/sub/logbook/",
    "field_static":false,
    "field_required":true,
    "field_description":"Log record identification."
  },
  {
    "field_id":18,
    "field":"log_air_compressor_id",
    "field_title":"Log Air Compressor ID",
    "field_type":"text",
    "field_group":"_lb",
    "field_view":"details_xtra",
    "field_input":"sub",
    "field_disabled":true,
    "field_picklist":"",
    "field_url":"tys_production/ympdb/sub/logbook/",
    "field_static":false,
    "field_required":true,
    "field_description":"Log record identification."
  },
  {
    "field_id":19,
    "field":"log_fog_system_id",
    "field_title":"Log Fog System ID",
    "field_type":"text",
    "field_group":"_lb",
    "field_view":"details_xtra",
    "field_input":"sub",
    "field_disabled":true,
    "field_picklist":"",
    "field_url":"tys_production/ympdb/sub/logbook/",
    "field_static":false,
    "field_required":true,
    "field_description":"Log record identification."
  },
  {
    "field_id":20,
    "field":"log_calorifier_temp_id",
    "field_title":"Log Calorifier Temperature ID",
    "field_type":"text",
    "field_group":"_lb",
    "field_view":"details_xtra",
    "field_input":"sub",
    "field_disabled":true,
    "field_picklist":"",
    "field_url":"tys_production/ympdb/sub/logbook/",
    "field_static":false,
    "field_required":true,
    "field_description":"Log record identification."
  },
  {
    "field_id":21,
    "field":"log_tank_level_id",
    "field_title":"Log Tank Level ID",
    "field_type":"text",
    "field_group":"_lb",
    "field_view":"details_xtra",
    "field_input":"sub",
    "field_disabled":true,
    "field_picklist":"",
    "field_url":"tys_production/ympdb/sub/logbook/",
    "field_static":false,
    "field_required":true,
    "field_description":"Log record identification."
  },
  {
    "field_id":22,
    "field":"log_chiller_unti_id_1",
    "field_title":"Log Chiller Unit ID 1",
    "field_type":"text",
    "field_group":"_lb",
    "field_view":"details_xtra",
    "field_input":"sub",
    "field_disabled":true,
    "field_picklist":"",
    "field_url":"tys_production/ympdb/sub/logbook/",
    "field_static":false,
    "field_required":true,
    "field_description":"Log record identification. A '1' or a '2' prefix will identify if data belongs to No.1 or No.2."
  },
  {
    "field_id":23,
    "field":"log_chiller_unti_id_2",
    "field_title":"Log Chiller Unit ID 2",
    "field_type":"text",
    "field_group":"_lb",
    "field_view":"details_xtra",
    "field_input":"sub",
    "field_disabled":true,
    "field_picklist":"",
    "field_url":"tys_production/ympdb/sub/logbook/",
    "field_static":false,
    "field_required":true,
    "field_description":"Log record identification. A '1' or a '2' prefix will identify if data belongs to No.1 or No.2."
  },
  {
    "field_id":24,
    "field":"log_freezer_unti_id",
    "field_title":"Log Freezer Unit ID",
    "field_type":"text",
    "field_group":"_lb",
    "field_view":"details_xtra",
    "field_input":"sub",
    "field_disabled":true,
    "field_picklist":"",
    "field_url":"tys_production/ympdb/sub/logbook/",
    "field_static":false,
    "field_required":true,
    "field_description":"Log record identification."
  },
  {
    "field_id":25,
    "field":"log_outside_temperature",
    "field_title":"Log Outside Temperature",
    "field_type":"text",
    "field_group":"_lb",
    "field_view":"details",
    "field_input":"write",
    "field_disabled":false,
    "field_picklist":"",
    "field_url":"",
    "field_static":true,
    "field_required":false,
    "field_description":"Log record outside temperature"
  },
  {
    "field_id":26,
    "field":"log_notes",
    "field_title":"Log Notes",
    "field_type":"text",
    "field_group":"_lb",
    "field_view":"main",
    "field_input":"write",
    "field_disabled":false,
    "field_picklist":"",
    "field_url":"",
    "field_static":true,
    "field_required":true,
    "field_description":"Log record notes"
  },
  {
    "field_id":27,
    "field":"log_approved",
    "field_title":"Approved",
    "field_type":"boolean",
    "field_group":"_lb",
    "field_view":"main",
    "field_input":"picklist",
    "field_disabled":false,
    "field_picklist":"yes_no",
    "field_url":"tys_production/ympdb/picklist/boolean/yes_no.json",
    "field_static":true,
    "field_required":true,
    "field_description":"Log approved by chief or not."
  },
  {
    "field_id":28,
    "field":"job_record_active",
    "field_title":"Record Active Status",
    "field_type":"boolean",
    "field_group":"_lb",
    "field_view":"details",
    "field_input":"auto",
    "field_disabled":true,
    "field_picklist":"",
    "field_url":"",
    "field_static":true,
    "field_required":true,
    "field_description":"Job record with true if active yes or false if active no. Default yes."
  }
]
