[
  {
    "field_id":1,
    "field":"watchkeeper_id",
    "field_title":"Watchkeeper ID",
    "field_type":"text",
    "field_group":"_pk",
    "field_view":"main",
    "field_input":"auto",
    "field_disabled":true,
    "field_picklist":"",
    "field_url":"",
    "field_static": false,
    "field_required": false,
    "field_description":"Field identification"
  }
]
