[
  {
    "field_id":1,
    "field":"user_id",
    "field_title":"Employee ID",
    "field_type":"text",
    "field_group":"_ua",
    "field_view":"main",
    "field_input":"auto",
    "field_disabled":true,
    "field_picklist":"",
    "field_url":"",
    "field_static": false,
    "field_required": false,
    "field_description":"Field identification"
  },
  {
    "field_id":2,
    "field":"user_username",
    "field_title":"Username",
    "field_type":"text",
    "field_group":"_ua",
    "field_view":"main",
    "field_input":"write",
    "field_disabled":false,
    "field_picklist":"",
    "field_url":"",
    "field_static": false,
    "field_required": false,
    "field_description":"User assigned username"
  },
  {
    "field_id":3,
    "field":"user_password",
    "field_title":"Password",
    "field_type":"password",
    "field_group":"_ua",
    "field_view":"pii",
    "field_input":"write",
    "field_disabled":false,
    "field_picklist":"",
    "field_url":"",
    "field_static": false,
    "field_required": false,
    "field_description":"User personal password"
  },
  {
    "field_id":4,
    "field":"user_title",
    "field_title":"Title",
    "field_type":"text",
    "field_group":"_ua",
    "field_view":"main",
    "field_input":"picklist",
    "field_disabled":false,
    "field_picklist":"user_title",
    "field_url":"tys_production/ympdb/picklist/user_title.json",
    "field_static": false,
    "field_required": false,
    "field_description":"The user title picklist"
  },
  {
    "field_id":5,
    "field":"user_pic",
    "field_title":"Photo",
    "field_type":"text",
    "field_group":"_ua",
    "field_view":"details",
    "field_input":"file",
    "field_disabled":true,
    "field_picklist":"",
    "field_url":"tys_production/ympdb/file/user",
    "field_static": false,
    "field_required": false,
    "field_description":"User record photo"
  }
]
