[
  {
    "field_id":1,
    "field":"inventory_id",
    "field_title":"Inventory Managment ID",
    "field_type":"text",
    "field_group":"_im",
    "field_view":"main",
    "field_input":"auto",
    "field_disabled":true,
    "field_picklist":"",
    "field_url":"",
    "field_static":false,
    "field_required":false,
    "field_description":"Field identification"
  },{"field_id":4,"field":"item_name","field_title":"Name","field_type":"text","field_group":"_im","field_view":"main","field_input":"write","field_disabled":false,"field_picklist":"","field_url":"","field_static":false,"field_required":false,"field_description":"The item name"},{"field_id":8,"field":"item_price","field_title":"Price (€)","field_type":"number","field_group":"_im","field_view":"main","field_input":"write","field_disabled":false,"field_picklist":"","field_url":"","field_static":false,"field_required":false,"field_description":"The item price in euro"},{"field_id":10,"field":"item_barcode","field_title":"Barcode","field_type":"number","field_group":"_im","field_view":"details","field_input":"auto","field_disabled":true,"field_picklist":"","field_url":"","field_static":true,"field_required":false,"field_description":"Inventory record item barcode"},{"field_id":2,"field":"inventory_record_date","field_title":"Record Date","field_type":"number","field_group":"_im","field_view":"log","field_input":"auto","field_disabled":true,"field_picklist":"","field_url":"","field_static":false,"field_required":true,"field_description":"Inventory record date."},{"field_id":3,"field":"inventory_record_time","field_title":"Record Time","field_type":"number","field_group":"_im","field_view":"log","field_input":"auto","field_disabled":true,"field_picklist":"","field_url":"","field_static":false,"field_required":true,"field_description":"Inventory record time."},{"field_id":5,"field":"item_quantity","field_title":"Quantity","field_type":"number","field_group":"_im","field_view":"main","field_input":"write","field_disabled":false,"field_picklist":"","field_url":"","field_static":false,"field_required":true,"field_description":"Inventory record item quantity."},{"field_id":6,"field":"item_min_quantity","field_title":"Min Quantity","field_type":"number","field_group":"_im","field_view":"details","field_input":"write","field_disabled":false,"field_picklist":"","field_url":"","field_static":false,"field_required":true,"field_description":"Inventory record item quantity."},{"field_id":7,"field":"inventory_manufacturer","field_title":"Manufacturer","field_type":"text","field_group":"_im","field_view":"details","field_input":"picklist","field_disabled":false,"field_picklist":"inventory_manufacturer","field_url":"tys_production/ympdb/picklist/inventory_manufacturer.json","field_static":false,"field_required":true,"field_description":"Inventory record manufacturer."},{"field_id":9,"field":"item_serial_number","field_title":"Serial Number","field_type":"text","field_group":"_im","field_view":"details","field_input":"write","field_disabled":false,"field_picklist":"","field_url":"","field_static":false,"field_required":false,"field_description":"Inventory record item serial number."},{"field_id":11,"field":"item_used_for","field_title":"Used For","field_type":"text","field_group":"_im","field_view":"details","field_input":"write","field_disabled":false,"field_picklist":"","field_url":"","field_static":false,"field_required":true,"field_description":"Inventory record item used for."},{"field_id":12,"field":"inventory_supplier","field_title":"Supplier","field_type":"text","field_group":"_im","field_view":"details","field_input":"picklist","field_disabled":false,"field_picklist":"inventory_supplier","field_url":"tys_production/ympdb/picklist/inventory_supplier.json","field_static":false,"field_required":true,"field_description":"Inventory record Item Suppliers."},{"field_id":13,"field":"item_note","field_title":"Item Note","field_type":"text","field_group":"_im","field_view":"details","field_input":"write","field_disabled":false,"field_picklist":"","field_url":"","field_static":false,"field_required":true,"field_description":"Inventory record Item note."},{"field_id":14,"field":"inventury_manual","field_title":"Manual","field_type":"text","field_group":"_im","field_view":"details","field_input":"file","field_disabled":false,"field_picklist":"","field_url":"tys_production/ympdb/file/inventory","field_static":false,"field_required":false,"field_description":"Inventory record Item Manuals."},{"field_id":15,"field":"user_edit_id","field_title":"User Logged","field_type":"text","field_group":"_im","field_view":"log","field_input":"auto","field_disabled":true,"field_picklist":"","field_url":"","field_static":false,"field_required":true,"field_description":"User record ID of the user editing the record."},{"field_id":16,"field":"iventory_record_active","field_title":"Record Active Status","field_type":"boolean","field_group":"_im","field_view":"log","field_input":"auto","field_disabled":true,"field_picklist":"","field_url":"","field_static":false,"field_required":true,"field_description":"Inventory record with true if active yes or false if active no. Default yes."}]
